House Prices: Advanced Regression Techniques
…
# view how many neighborhoods
levels(all$Neighborhood)

##  [1] "Blmngtn" "Blueste" "BrDale"  "BrkSide" "ClearCr" "CollgCr" "Crawfor"
##  [8] "Edwards" "Gilbert" "IDOTRR"  "MeadowV" "Mitchel" "NAmes"   "NoRidge"
## [15] "NPkVill" "NridgHt" "NWAmes"  "OldTown" "Sawyer"  "SawyerW" "Somerst"
## [22] "StoneBr" "SWISU"   "Timber"  "Veenker"

# get median for Neighborhood
all %>%
  group_by(Neighborhood) %>%
    summarise(median_lotFRont = median(LotFrontage, na.rm = T))

## # A tibble: 25 x 2
##    Neighborhood median_lotFRont
##          <fctr>           <dbl>
##  1      Blmngtn            43.0
##  2      Blueste            24.0
##  3       BrDale            21.0
##  4      BrkSide            51.0
##  5      ClearCr            80.5
##  6      CollgCr            70.0
##  7      Crawfor            70.0
##  8      Edwards            65.0
##  9      Gilbert            64.0
## 10       IDOTRR            60.0
## # ... with 15 more rows
…
